{
  "resource": {
    "aws_cloudwatch_metric_alarm": {
      "disk_queue_depth_too_high": {
        "alarm_name": "${replace(var.domain_name,\".\",\"-\")}-disk-queue-depth-too-high",
        "comparison_operator": "GreaterThanThreshold",
        "evaluation_periods": "1",
        "metric_name": "DiskQueueDepth",
        "namespace": "AWS/RDS",
        "period": "600",
        "statistic": "Average",
        "threshold": "${local.thresholds[\"DiskQueueDepthThreshold\"]}",
        "alarm_description": "Average database disk queue depth over last 10 minutes too high, performance may suffer",
        "alarm_actions": ["${aws_sns_topic.default.arn}"],
        "ok_actions": ["${aws_sns_topic.default.arn}"],
        "dimensions": {
          "DBInstanceIdentifier": "${var.db_instance_id}"
        }
      }
    }
  }
}
