{
  "output": {
    "sns_topic": {
      "value": "${aws_sns_topic.default}"
    },
    "db_event_subscription": {
      "value": "${aws_db_event_subscription.default}"
    },
    "sns_topic_policy": {
      "value": "${aws_sns_topic_policy.default}"
    },
    "cloudwatch_metric_alarm_burst_balance_too_low": {
      "value": "${aws_cloudwatch_metric_alarm.burst_balance_too_low}"
    },
    "cloudwatch_metric_alarm_cpu_credit_balance_too_low": {
      "value": "${aws_cloudwatch_metric_alarm.cpu_credit_balance_too_low}"
    },
    "cloudwatch_metric_alarm_cpu_utilization_too_high": {
      "value": "${aws_cloudwatch_metric_alarm.cpu_utilization_too_high}"
    },
    "cloudwatch_metric_alarm_disk_queue_depth_too_high": {
      "value": "${aws_cloudwatch_metric_alarm.disk_queue_depth_too_high}"
    },
    "cloudwatch_metric_alarm_free_storage_space_too_low": {
      "value": "${aws_cloudwatch_metric_alarm.free_storage_space_too_low}"
    },
    "cloudwatch_metric_alarm_freeable_memory_too_low": {
      "value": "${aws_cloudwatch_metric_alarm.freeable_memory_too_low}"
    },
    "cloudwatch_metric_alarm_swap_usage_too_high": {
      "value": "${aws_cloudwatch_metric_alarm.swap_usage_too_high}"
    }
  }
}
