{
  "//": "aws rds describe-db-engine-versions --query \"DBEngineVersions[].DBParameterGroupFamily\"",
  "resource": {
    "aws_db_parameter_group": {
      "default": {
        "name": "${replace(var.domain_name,\".\",\"-\")}",
        "family": "postgres12",

        "parameter": [
          {
            "name": "client_encoding",
            "value": "UTF8"
          }
        ],
        "tags": "${var.tags}"
      }
    }
  }
}
